%YAML 1.1
%TAG !u! tag:unity3d.com,2011:
--- !u!114 &11400000
MonoBehaviour:
  m_ObjectHideFlags: 0
  m_CorrespondingSourceObject: {fileID: 0}
  m_PrefabInstance: {fileID: 0}
  m_PrefabAsset: {fileID: 0}
  m_GameObject: {fileID: 0}
  m_Enabled: 1
  m_EditorHideFlags: 0
  m_Script: {fileID: 11500000, guid: f5ba9ec7b909f224b8ff0e200d0258b6, type: 3}
  m_Name: Basement
  m_EditorClassIdentifier: 
  all:
  - {fileID: 114800337779237958, guid: d88c250638c2a5040a47f90a3f737c76, type: 3}
