%YAML 1.1
%TAG !u! tag:unity3d.com,2011:
--- !u!114 &11400000
MonoBehaviour:
  m_ObjectHideFlags: 0
  m_CorrespondingSourceObject: {fileID: 0}
  m_PrefabInternal: {fileID: 0}
  m_GameObject: {fileID: 0}
  m_Enabled: 1
  m_EditorHideFlags: 0
  m_Script: {fileID: 11500000, guid: d26bd3836d939ea428421fc969c3759e, type: 3}
  m_Name: Key
  m_EditorClassIdentifier: 
  icon: {fileID: 21300000, guid: 614c54f540d94d749bc22dcf2f3c07d9, type: 3}
  name: Key
  coins: 0
  bombs: 0
  keys: 1
